<?xml version="1.0" encoding="UTF-8" standalone="no"?>
<!-- Created with Inkscape (http://www.inkscape.org/) -->

<svg
   width="210mm"
   height="297mm"
   viewBox="0 0 210 297"
   version="1.1"
   id="svg5"
   inkscape:version="1.1.2 (76b9e6a115, 2022-02-25)"
   sodipodi:docname="drive.svg"
   xmlns:inkscape="http://www.inkscape.org/namespaces/inkscape"
   xmlns:sodipodi="http://sodipodi.sourceforge.net/DTD/sodipodi-0.dtd"
   xmlns="http://www.w3.org/2000/svg"
   xmlns:svg="http://www.w3.org/2000/svg">
  <sodipodi:namedview
     id="namedview7"
     pagecolor="#505050"
     bordercolor="#eeeeee"
     borderopacity="1"
     inkscape:pageshadow="0"
     inkscape:pageopacity="0"
     inkscape:pagecheckerboard="0"
     inkscape:document-units="mm"
     showgrid="false"
     inkscape:zoom="1.4681257"
     inkscape:cx="1222.9879"
     inkscape:cy="330.35318"
     inkscape:window-width="1920"
     inkscape:window-height="1024"
     inkscape:window-x="1920"
     inkscape:window-y="32"
     inkscape:window-maximized="1"
     inkscape:current-layer="layer1"
     showguides="true"
     inkscape:guide-bbox="true"
     inkscape:lockguides="true" />
  <defs
     id="defs2" />
  <g
     inkscape:label="Layer 1"
     inkscape:groupmode="layer"
     id="layer1">
    <text
       xml:space="preserve"
       style="font-size:4.9389px;font-family:Chandas;-inkscape-font-specification:Chandas;fill:#ffffff;stroke-width:0.264583"
       x="90.882317"
       y="34.788296"
       id="text1927"><tspan
         sodipodi:role="line"
         id="tspan1925"
         style="stroke-width:0.264583"
         x="90.882317"
         y="34.788296">ROOT</tspan></text>
    <text
       xml:space="preserve"
       style="font-size:4.9389px;font-family:Chandas;-inkscape-font-specification:Chandas;fill:#ffffff;stroke-width:0.264583"
       x="56.462997"
       y="59.325222"
       id="text5795"><tspan
         sodipodi:role="line"
         id="tspan5793"
         style="stroke-width:0.264583"
         x="56.462997"
         y="59.325222">NEWS</tspan></text>
    <text
       xml:space="preserve"
       style="font-size:4.9389px;font-family:Chandas;-inkscape-font-specification:Chandas;fill:#ffffff;stroke-width:0.264583"
       x="30.131657"
       y="82.35244"
       id="text11829"><tspan
         sodipodi:role="line"
         id="tspan11827"
         style="stroke-width:0.264583"
         x="30.131657"
         y="82.35244">ACTIVE</tspan></text>
    <text
       xml:space="preserve"
       style="font-size:4.9389px;font-family:Chandas;-inkscape-font-specification:Chandas;fill:#ffffff;stroke-width:0.264583"
       x="75.870178"
       y="81.733818"
       id="text14341"><tspan
         sodipodi:role="line"
         id="tspan14339"
         style="stroke-width:0.264583"
         x="75.870178"
         y="81.733818">ARCHIVED</tspan></text>
    <ellipse
       style="fill:none;stroke:#ffffff;stroke-width:0.264583"
       id="path20023"
       cx="99.04911"
       cy="32.737396"
       rx="16.368107"
       ry="12.165586" />
    <ellipse
       style="fill:none;stroke:#ffffff;stroke-width:0.264583"
       id="path20025"
       cx="64.015953"
       cy="57.685055"
       rx="16.461878"
       ry="7.0794721" />
    <ellipse
       style="fill:none;stroke:#ffffff;stroke-width:0.264583"
       id="path20027"
       cx="39.779747"
       cy="80.953537"
       rx="15.36733"
       ry="5.0702171" />
    <ellipse
       style="fill:none;stroke:#ffffff;stroke-width:0.264583"
       id="path20029"
       cx="90.673965"
       cy="80.187477"
       rx="17.167473"
       ry="5.0974026" />
    <g
       id="g20258"
       transform="matrix(-0.30344248,-0.38210979,0.36866716,-0.31450683,58.168809,65.310658)"
       style="stroke:#ffffff">
      <path
         style="fill:none;stroke:#ffffff;stroke-width:0.264583px;stroke-linecap:butt;stroke-linejoin:miter;stroke-opacity:1"
         d="m 11.169791,34.358665 c 0,37.739192 0.261946,38.540266 0.261946,38.540266"
         id="path20144" />
      <path
         style="fill:none;stroke:#ffffff;stroke-width:0.264583px;stroke-linecap:butt;stroke-linejoin:miter;stroke-opacity:1"
         d="m 11.184818,34.445191 c 5.382755,5.382755 5.455056,5.334558 5.455056,5.334558"
         id="path20146" />
      <path
         style="fill:none;stroke:#ffffff;stroke-width:0.264583px;stroke-linecap:butt;stroke-linejoin:miter;stroke-opacity:1"
         d="M 11.184818,34.445191 C 5.802063,39.827946 5.729762,39.779749 5.729762,39.779749"
         id="path20146-3" />
    </g>
    <g
       id="g20258-6"
       transform="matrix(-0.30344248,-0.38210979,0.36866716,-0.31450683,28.295596,89.844829)"
       style="stroke:#ffffff">
      <path
         style="fill:none;stroke:#ffffff;stroke-width:0.264583px;stroke-linecap:butt;stroke-linejoin:miter;stroke-opacity:1"
         d="m 11.169791,34.358665 c 0,37.739192 0.261946,38.540266 0.261946,38.540266"
         id="path20144-7" />
      <path
         style="fill:none;stroke:#ffffff;stroke-width:0.264583px;stroke-linecap:butt;stroke-linejoin:miter;stroke-opacity:1"
         d="m 11.184818,34.445191 c 5.382755,5.382755 5.455056,5.334558 5.455056,5.334558"
         id="path20146-5" />
      <path
         style="fill:none;stroke:#ffffff;stroke-width:0.264583px;stroke-linecap:butt;stroke-linejoin:miter;stroke-opacity:1"
         d="M 11.184818,34.445191 C 5.802063,39.827946 5.729762,39.779749 5.729762,39.779749"
         id="path20146-3-3" />
    </g>
    <g
       id="g20258-6-5"
       transform="matrix(0.30344248,-0.38210979,-0.36866716,-0.31450683,98.914121,89.806164)"
       style="stroke:#ffffff">
      <path
         style="fill:none;stroke:#ffffff;stroke-width:0.264583px;stroke-linecap:butt;stroke-linejoin:miter;stroke-opacity:1"
         d="m 11.169791,34.358665 c 0,37.739192 0.261946,38.540266 0.261946,38.540266"
         id="path20144-7-6" />
      <path
         style="fill:none;stroke:#ffffff;stroke-width:0.264583px;stroke-linecap:butt;stroke-linejoin:miter;stroke-opacity:1"
         d="m 11.184818,34.445191 c 5.382755,5.382755 5.455056,5.334558 5.455056,5.334558"
         id="path20146-5-2" />
      <path
         style="fill:none;stroke:#ffffff;stroke-width:0.264583px;stroke-linecap:butt;stroke-linejoin:miter;stroke-opacity:1"
         d="M 11.184818,34.445191 C 5.802063,39.827946 5.729762,39.779749 5.729762,39.779749"
         id="path20146-3-3-9" />
    </g>
    <rect
       style="fill:#d45500;stroke:#ffffff;stroke-width:0.264583"
       id="rect52"
       width="62.826981"
       height="37.708721"
       x="217.98291"
       y="25.591011" />
    <rect
       style="fill:#808000;stroke:#ffffff;stroke-width:0.264583"
       id="rect52-3"
       width="62.826981"
       height="37.708721"
       x="296.7861"
       y="25.591011" />
    <rect
       style="fill:#800000;stroke:#ffffff;stroke-width:0.264583"
       id="rect52-6"
       width="62.826981"
       height="37.708721"
       x="377.50217"
       y="24.938723" />
    <text
       xml:space="preserve"
       style="font-size:4.9389px;font-family:Chandas;-inkscape-font-specification:Chandas;fill:#ffffff;stroke:none;stroke-width:0.264583"
       x="235.52425"
       y="47.474861"
       id="text1914"><tspan
         sodipodi:role="line"
         id="tspan1912"
         style="fill:#ffffff;stroke:none;stroke-width:0.264583"
         x="235.52425"
         y="47.474861">Controller</tspan></text>
    <text
       xml:space="preserve"
       style="font-size:4.9389px;font-family:Chandas;-inkscape-font-specification:Chandas;fill:#ffffff;stroke:none;stroke-width:0.264583"
       x="316.56168"
       y="46.813103"
       id="text1914-7"><tspan
         sodipodi:role="line"
         id="tspan1912-5"
         style="fill:#ffffff;stroke:none;stroke-width:0.264583"
         x="316.56168"
         y="46.813103">Service</tspan></text>
    <text
       xml:space="preserve"
       style="font-size:4.9389px;font-family:Chandas;-inkscape-font-specification:Chandas;fill:#ffffff;stroke:none;stroke-width:0.264583"
       x="394.6236"
       y="46.533417"
       id="text17837"><tspan
         sodipodi:role="line"
         id="tspan17835"
         style="stroke-width:0.264583"
         x="394.6236"
         y="46.533417">Repository</tspan></text>
    <text
       xml:space="preserve"
       style="font-size:4.9389px;font-family:Chandas;-inkscape-font-specification:Chandas;fill:#ffffff;stroke:none;stroke-width:0.264583"
       x="223.85022"
       y="71.584557"
       id="text21522"><tspan
         sodipodi:role="line"
         style="stroke-width:0.264583"
         x="223.85022"
         y="71.584557"
         id="tspan23108">endpoint definitions</tspan></text>
    <rect
       style="fill:#800000;stroke:#ffffff;stroke-width:0.264583"
       id="rect52-6-1"
       width="62.826981"
       height="37.708721"
       x="378.02692"
       y="96.085152" />
    <text
       xml:space="preserve"
       style="font-size:4.9389px;font-family:Chandas;-inkscape-font-specification:Chandas;fill:#ffffff;stroke:none;stroke-width:0.264583"
       x="393.66714"
       y="117.56423"
       id="text17837-2"><tspan
         sodipodi:role="line"
         id="tspan17835-7"
         style="stroke-width:0.264583"
         x="393.66714"
         y="117.56423">Specification</tspan></text>
    <text
       xml:space="preserve"
       style="font-size:4.9389px;font-family:Chandas;-inkscape-font-specification:Chandas;fill:#ffffff;stroke:none;stroke-width:0.264583"
       x="313.59064"
       y="72.769974"
       id="text42087"><tspan
         sodipodi:role="line"
         id="tspan42085"
         style="stroke-width:0.264583"
         x="313.59064"
         y="72.769974">validations</tspan></text>
    <text
       xml:space="preserve"
       style="font-size:4.9389px;font-family:Chandas;-inkscape-font-specification:Chandas;fill:#ffffff;stroke:none;stroke-width:0.264583"
       x="384.97046"
       y="72.892952"
       id="text48625"><tspan
         sodipodi:role="line"
         id="tspan48623"
         style="stroke-width:0.264583"
         x="384.97046"
         y="72.892952">database operations</tspan></text>
    <text
       xml:space="preserve"
       style="font-size:4.9389px;font-family:Chandas;-inkscape-font-specification:Chandas;fill:#ffffff;stroke:none;stroke-width:0.264583"
       x="391.63644"
       y="142.09622"
       id="text51821"><tspan
         sodipodi:role="line"
         id="tspan51819"
         style="stroke-width:0.264583"
         x="391.63644"
         y="142.09622">query definitions</tspan></text>
    <text
       xml:space="preserve"
       style="font-size:4.9389px;font-family:Chandas;-inkscape-font-specification:Chandas;fill:#ffffff;stroke:none;stroke-width:0.264583"
       x="305.16611"
       y="81.355576"
       id="text56601"><tspan
         sodipodi:role="line"
         id="tspan56599"
         style="stroke-width:0.264583"
         x="305.16611"
         y="81.355576">mapping model-dto</tspan></text>
    <rect
       style="fill:#808000;stroke:#ffffff;stroke-width:0.264583"
       id="rect52-3-6"
       width="62.826981"
       height="37.708721"
       x="296.9877"
       y="96.036522" />
    <text
       xml:space="preserve"
       style="font-size:4.9389px;font-family:Chandas;-inkscape-font-specification:Chandas;fill:#ffffff;stroke:none;stroke-width:0.264583"
       x="316.76328"
       y="117.25861"
       id="text1914-7-0"><tspan
         sodipodi:role="line"
         id="tspan1912-5-6"
         style="fill:#ffffff;stroke:none;stroke-width:0.264583"
         x="316.76328"
         y="117.25861">Helpers</tspan></text>
    <text
       xml:space="preserve"
       style="font-size:4.9389px;font-family:Chandas;-inkscape-font-specification:Chandas;fill:#ffffff;stroke:none;stroke-width:0.264583"
       x="310.90619"
       y="142.63828"
       id="text42087-2"><tspan
         sodipodi:role="line"
         id="tspan42085-6"
         style="stroke-width:0.264583"
         x="310.90619"
         y="142.63828">helper functions</tspan></text>
    <rect
       style="fill:#808000;stroke:#ffffff;stroke-width:0.264583"
       id="rect52-3-6-7"
       width="62.826981"
       height="37.708721"
       x="217.50221"
       y="96.579567" />
    <text
       xml:space="preserve"
       style="font-size:4.9389px;font-family:Chandas;-inkscape-font-specification:Chandas;fill:#ffffff;stroke:none;stroke-width:0.264583"
       x="237.27779"
       y="117.80166"
       id="text1914-7-0-9"><tspan
         sodipodi:role="line"
         id="tspan1912-5-6-2"
         style="fill:#ffffff;stroke:none;stroke-width:0.264583"
         x="237.27779"
         y="117.80166">Libraries</tspan></text>
    <text
       xml:space="preserve"
       style="font-size:4.9389px;font-family:Chandas;-inkscape-font-specification:Chandas;fill:#ffffff;stroke:none;stroke-width:0.264583"
       x="224.71359"
       y="142.87671"
       id="text42087-2-0"><tspan
         sodipodi:role="line"
         id="tspan42085-6-2"
         style="stroke-width:0.264583"
         x="224.71359"
         y="142.87671">third-party libraries</tspan></text>
  </g>
</svg>
